digraph g {
	subgraph cluster_m80{
		label="R=-80 ";
1121 [label="B (x174)", layer="-80"];
	}
	subgraph cluster_m67{
		label="R=-67 ";
991 [label="B (x161)", layer="-67"];
	}
	subgraph cluster_m58{
		label="R=-58 ";
1060 [label="B (x152)", layer="-58"];
	}
	subgraph cluster_m56{
		label="R=-56 ";
951 [label="B (x150)", layer="-56"];
	}
	subgraph cluster_m50{
		label="R=-50 ";
1062 [label="B (x144)", layer="-50"];
	}
	subgraph cluster_m48{
		label="R=-48 ";
1022 [label="B (x142)", layer="-48"];
	}
	subgraph cluster_m41{
		label="R=-41 ";
953 [label="B (x135)", layer="-41"];
	}
	subgraph cluster_m39{
		label="R=-39 ";
961 [label="B (x133)", layer="-39"];
	}
	subgraph cluster_m27{
		label="R=-27 ";
892 [label="B (x121)", layer="-27"];
	}
	subgraph cluster_m19{
		label="R=-19 ";
1015 [label="B (x113)", layer="-19"];
	}
	subgraph cluster_m14{
		label="R=-14 ";
941 [label="B (x108)", layer="-14"];
	}
	subgraph cluster_m4{
		label="R=-4 ";
1017 [label="B (x98)", layer="-4"];
	}
	subgraph cluster_561{
		label="R=561 ";
0 [label="C", layer="561"];
	}

	1121->1155
	991->1155
	1060->1155
	951->1155
	1062->1155
	1022->1155
	953->1155
	961->1155
	892->1155
	1015->1155
	941->1155
	1017->1155
}