digraph g {
	subgraph cluster_m74{
		label="R=-74 ";
1087 [label="B (x168)", color="black", fontcolor="blue", layer="-74"];
	}
	subgraph cluster_m53{
		label="R=-53 ";
1024 [label="B (x147)", color="black", fontcolor="blue", layer="-53"];
	}
	subgraph cluster_m49{
		label="R=-49 ";
1012 [label="B (x143)", color="black", fontcolor="blue", layer="-49"];
	}
	subgraph cluster_m38{
		label="R=-38 ";
979 [label="B (x132)", color="black", fontcolor="blue", layer="-38"];
	}
	subgraph cluster_m37{
		label="R=-37 ";
976 [label="B (x131)", color="black", fontcolor="blue", layer="-37"];
	}
	subgraph cluster_m33{
		label="R=-33 ";
964 [label="B (x127)", color="black", fontcolor="blue", layer="-33"];
	}
	subgraph cluster_m25{
		label="R=-25 ";
940 [label="B (x119)", color="black", fontcolor="blue", layer="-25"];
	}
	subgraph cluster_m22{
		label="R=-22 ";
931 [label="B (x116)", color="black", fontcolor="blue", layer="-22"];
	}
	subgraph cluster_m16{
		label="R=-16 ";
913 [label="B (x110)", color="black", fontcolor="blue", layer="-16"];
	}
	subgraph cluster_m11{
		label="R=-11 ";
898 [label="B (x105)", color="black", fontcolor="blue", layer="-11"];
	}
	subgraph cluster_m10{
		label="R=-10 ";
895 [label="B (x104)", color="black", fontcolor="blue", layer="-10"];
	}
	subgraph cluster_m5{
		label="R=-5 ";
880 [label="B (x99)", color="black", fontcolor="blue", layer="-5"];
	}
	subgraph cluster_561{
		label="R=561 ";
0 [label="C", color="black", fontcolor="black", layer="561"];
	}

	1087->1155
	1024->1155
	1012->1155
	979->1155
	976->1155
	964->1155
	940->1155
	931->1155
	913->1155
	898->1155
	895->1155
	880->1155
}